{
    "admin": [
        {
            "items": [
                {
                    "id": 0,
                    "name": "Arctic Fox",
                    "count": 47
                },
                {
                    "id": 1,
                    "name": "Himalayan Pika",
                    "count": 89
                }
            ],
            "totalCost": 46625,
            "timestamp": "2017-10-09 15:51"
        },
        {
            "items": [
                {
                    "id": 2,
                    "name": "Lynx",
                    "count": 18
                },
                {
                    "id": 6,
                    "name": "Red Panda",
                    "count": 21
                },
                {
                    "id": 8,
                    "name": "T-Rex",
                    "count": 7
                },
                {
                    "id": 0,
                    "name": "Arctic Fox",
                    "count": 65
                }
            ],
            "totalCost": 275580,
            "timestamp": "2017-10-09 15:49"
        },
        {
            "items": [
                {
                    "id": 1,
                    "name": "Himalayan Pika",
                    "count": 7
                },
                {
                    "id": 2,
                    "name": "Lynx",
                    "count": 5
                },
                {
                    "id": 4,
                    "name": "Pika",
                    "count": 3
                },
                {
                    "id": 0,
                    "name": "Arctic Fox",
                    "count": 1
                }
            ],
            "totalCost": 4945,
            "timestamp": "2017-10-09 15:45"
        }
    ],
    "andrew": [
        {
            "items": [
                {
                    "id": 8,
                    "name": "T-Rex",
                    "count": 100
                }
            ],
            "totalCost": 2500000,
            "timestamp": "2017-10-09 15:48"
        }
    ]
}